Lab02 • StatCompLab
…
The expression(sigma) y-axis label is a way of making R try to interpret an R expression and format it more like a mathematical expression, with greek letters, etc. For example, ylab(expression(theta[3] + x[i] * theta[4])) would be formatted as \(\theta_3+x_i\theta_4\).

Data wrangling

To help  produce proper figure labels, we can use data wrangling methods from a set of R packages commonly referred to as the tidyverse. The idea is to convert our data frame that has each type of output as separate data columns into a format where the values of the true and estimated expectations and standard deviations are stored in a single column, and other, new columns encode what each row contains.

suppressPackageStartupMessages(library(tidyverse))
data_long <-
  data %>%
  pivot_longer(cols = -c(x, y),
               values_to = "value",
               names_to = c("property", "type"),
               names_pattern = "(.*)_(.*)")
data_long
#> # A tibble: 400 x 5
#>         x     y property    type  value
#>     <dbl> <dbl> <chr>       <chr> <dbl>
#>  1 0       2.08 expectation true  2    
#>  2 0       2.08 sigma       true  0.135
#>  3 0       2.08 expectation est   1.98 
#>  4 0       2.08 sigma       est   0.135
#>  5 0.0101  2.08 expectation true  1.98 
#>  6 0.0101  2.08 sigma       true  0.139
#>  7 0.0101  2.08 expectation est   1.97 
#>  8 0.0101  2.08 sigma       est   0.140
#>  9 0.0202  1.94 expectation true  1.96 
#> 10 0.0202  1.94 sigma       true  0.144
#> # … with 390 more rows
…
