Tutorial 02: Optimization (solutions) • StatCompLab
…
Data wrangling

To help  produce proper figure labels, we can use data wrangling methods from a set of R packages commonly referred to as the tidyverse. The idea is to convert our data frame that has each type of output as separate data columns into a format where the values of the true and estimated expectations and standard deviations are stored in a single column, and other, new columns encode what each row contains.

suppressPackageStartupMessages(library(tidyverse))
data_long <-
  data %>%
  pivot_longer(cols = -c(x, y),
               values_to = "value",
               names_to = c("property", "type"),
               names_pattern = "(.*)_(.*)")
data_long

## # A tibble: 400 × 5
##         x     y property    type  value
##     <dbl> <dbl> <chr>       <chr> <dbl>
##  1 0       1.92 expectation true  2    
##  2 0       1.92 sigma       true  0.135
##  3 0       1.92 expectation est   2.01 
##  4 0       1.92 sigma       est   0.122
##  5 0.0101  1.95 expectation true  1.98 
##  6 0.0101  1.95 sigma       true  0.139
##  7 0.0101  1.95 expectation est   1.99 
##  8 0.0101  1.95 sigma       est   0.126
##  9 0.0202  2.18 expectation true  1.96 
## 10 0.0202  2.18 sigma       true  0.144
## # … with 390 more rows
…
