Tutorial 02: Optimization • StatCompLab
…
suppressPackageStartupMessages(library(tidyverse))
data_long <-
  data %>%
  pivot_longer(cols = -c(x, y),
               values_to = "value",
               names_to = c("property", "type"),
               names_pattern = "(.*)_(.*)")
data_long

## # A tibble: 400 × 5
##         x     y property    type  value
##     <dbl> <dbl> <chr>       <chr> <dbl>
##  1 0       1.92 expectation true  2    
##  2 0       1.92 sigma       true  0.135
##  3 0       1.92 expectation est   2.01 
##  4 0       1.92 sigma       est   0.122
##  5 0.0101  1.95 expectation true  1.98 
##  6 0.0101  1.95 sigma       true  0.139
##  7 0.0101  1.95 expectation est   1.99 
##  8 0.0101  1.95 sigma       est   0.126
##  9 0.0202  2.18 expectation true  1.96 
## 10 0.0202  2.18 sigma       true  0.144
## # ℹ 390 more rows
…
